Concordance Table: H4 to I3.1 — H4_I31 • comtradeRggregator
…
HS 2012 Product DescriptionHarmonised System HS 2012 (H4) Product description.

ISIC Revision 3.1 Product CodeInternational Standard Industrial Classification ISIC Rev. 3.1 (I31) Product code.

ISIC Revision 3.1 Product DescriptionInternational Standard Industrial Classification ISIC Rev. 3.1 (I31) Product code.

    Source

    https://unstats.un.org/unsd/trade/classifications/bec.asp

    Examples

H4_I31
#> # A tibble: 5,205 x 4
#>    `HS 2012 Product Code` `HS 2012 Product ~ `ISIC Revision ~ `ISIC Revision 3.~
#>    <chr>                  <chr>              <chr>            <chr>             
#>  1 010121                 live purebred bre~ 0121             Farming of cattle~
#>  2 010129                 horses, live, exc~ 0121             Farming of cattle~
#>  3 010130                 live asses         0121             Farming of cattle~
#>  4 010190                 live horses, asse~ 0121             Farming of cattle~
#>  5 010221                 live purebred bre~ 0121             Farming of cattle~
#>  6 010229                 live cattle other~ 0121             Farming of cattle~
#>  7 010231                 live purebred bre~ 0121             Farming of cattle~
#>  8 010239                 live buffalo othe~ 0121             Farming of cattle~
#>  9 010290                 bovine animals, l~ 0121             Farming of cattle~
#> 10 010310                 swine, live, pure~ 0122             Other animal farm~
#> # ... with 5,195 more rows
…
