Concordance Table: S3 to S2 — S3_S2 • comtradeRggregator
…
SITC Revision 3 Product DescriptionStandard International Trade Classification SITC Rev.3 (S3) Product description.

SITC Revision 2 Product CodeStandard International Trade Classification SITC Rev.2 (S2) Product code.

SITC Revision 2 Product DescriptionStandard International Trade Classification SITC Rev.2 (S2) Product description.

    Source

    https://wits.worldbank.org/product_concordance.html

    Examples

S3_S2

#> # A tibble: 3,121 x 4
#>    `SITC Revision 3 ~ `SITC Revision 3 P~ `SITC Revision 2~ `SITC Revision 2 Pr~
#>    <chr>              <chr>               <chr>             <chr>               
#>  1 00111              Bovine animals, br~ 00111             Bovine species pure~
#>  2 00119              Bovine animals, ot~ 00119             Bovine species othe~
#>  3 00121              Sheep,live          00121             Sheep, live         
#>  4 00122              Goats,live          00122             Goats, live         
#>  5 00131              Swine, live for br~ 0013              Swine, live         
#>  6 00139              Swine, live, other  0013              Swine, live         
#>  7 00141              Poultry,live,max 1~ 00141             Poultry,live of a w~
#>  8 00149              Poultry live,over ~ 00149             Poultry,live of a w~
#>  9 00151              Horses              0015              Horses, asses, mule~
#> 10 00152              Asses/mules/hinnie~ 0015              Horses, asses, mule~
#> # ... with 3,111 more rows
…
