Working with mirror data • comtradeRggregator
…
mirrX_AT_DE <- download_Comtrade(
  year = "2018",
  frequency = "annual",
  countries = "Austria",
  partners = "Germany",
  nomenclature = "H3",
  commodity = "ag6",
  select.stats = "trade_value_usd",
  direction = "exports",
  type = "commodities",
  is.mirrorData = TRUE
)
mirrX_AT_DE
#> # A tibble: 4,056 x 8
#>    classification period trade_flow reporter         partner commodity_code commodity          trade_value_usd
#>    <chr>           <int> <chr>      <chr>            <chr>   <chr>          <chr>                        <dbl>
#>  1 H3               2018 Export     Austria mirrored Germany 010110         Live horses/asses~          578079
#>  2 H3               2018 Export     Austria mirrored Germany 010190         Live horses/asses~           17717
#>  3 H3               2018 Export     Austria mirrored Germany 010210         Live bovine anima~           75642
#>  4 H3               2018 Export     Austria mirrored Germany 010290         Live bovine anima~         4329765
#>  5 H3               2018 Export     Austria mirrored Germany 010391         Live swine other ~          916695
#>  6 H3               2018 Export     Austria mirrored Germany 010392         Live swine other ~          219879
#>  7 H3               2018 Export     Austria mirrored Germany 010410         Live sheep                  778978
#>  8 H3               2018 Export     Austria mirrored Germany 010420         Live goats                   45964
#>  9 H3               2018 Export     Austria mirrored Germany 010511         Live fowls of spe~         6716350
#> 10 H3               2018 Export     Austria mirrored Germany 010512         Live turkeys, wei~            2194
#> # ... with 4,046 more rows
…
  year = "2018",
  frequency = "annual",
  countries = "Austria",
  partners = "World",
  nomenclature = "HS2007",
  commodity = "ag2",
  select.stats = "trade_value_usd",
  direction = "all",
  type = "commodities",
  is.mirrorData = TRUE,
  rm.temporaryFiles = FALSE,
  build.Comtrade = TRUE,
)
AT_mirr
#> # A tibble: 363 x 8
#>    classification period trade_flow reporter         partner commodity_code commodity    ~ trade_value_usd
#>    <chr>           <int> <chr>      <chr>            <chr>   <chr>          <chr>        ~           <dbl>
#>  1 H3               2018 Export     Austria mirrored World   01             Live animals;~       146122111
#>  2 H3               2018 Export     Austria mirrored World   02             Meat and edib~      1279494900
#>  3 H3               2018 Export     Austria mirrored World   03             Fish and crus~        10067362
#>  4 H3               2018 Export     Austria mirrored World   04             Dairy produce~      1522685531
#>  5 H3               2018 Export     Austria mirrored World   05             Products of a~        79271602
#>  6 H3               2018 Export     Austria mirrored World   06             Live trees an~        26938801
#>  7 H3               2018 Export     Austria mirrored World   07             Edible vegeta~       142130800
#>  8 H3               2018 Export     Austria mirrored World   08             Edible fruit ~       209962703
#>  9 H3               2018 Export     Austria mirrored World   09             Coffee, tea, ~       116804431
#> 10 H3               2018 Export     Austria mirrored World   10             Cereals      ~       544971227
#> # ... with 353 more rows
…
