Introduction to comtradeRggregator • comtradeRggregator
…
To download annual global, i.e. World, commodity trade data in USD following the HS2007 nomenclature for all available trade flows, i.e. imports, exports as well as re-imports and re-exports, at AG6 level reported by Austria in 2018, run:

AT_World <- download_Comtrade(
  year = "2018",
  frequency = "annual",
  countries = "Austria",
  partners = "World",
  nomenclature = "HS2007",
  commodity = "AG6",
  type = "commodities",
  select.stats = "trade_value_usd",
  direction = "all"
)
AT_World
#> # A tibble: 9,432 x 8
#>    classification period trade_flow reporter partner commodity_code commodity   
#>    <chr>           <int> <chr>      <chr>    <chr>   <chr>          <chr>       
#>  1 H3               2018 Export     Austria  World   010110         Live horses~
#>  2 H3               2018 Import     Austria  World   010190         Live horses~
#>  3 H3               2018 Export     Austria  World   010190         Live horses~
#>  4 H3               2018 Import     Austria  World   010210         Live bovine~
#>  5 H3               2018 Export     Austria  World   010210         Live bovine~
#>  6 H3               2018 Import     Austria  World   010290         Live bovine~
#>  7 H3               2018 Export     Austria  World   010290         Live bovine~
#>  8 H3               2018 Import     Austria  World   010310         Live swine:~
#>  9 H3               2018 Export     Austria  World   010310         Live swine:~
#> 10 H3               2018 Import     Austria  World   010391         Live swine ~
#> # ... with 9,422 more rows, and 1 more variable: trade_value_usd <dbl>
…
  year = "2018",
  frequency = "annual",
  countries = "Austria",
  partners = "World",
  nomenclature = "HS2007",
  commodity = "ag2",
  select.stats = "trade_value_usd",
  direction = "all",
  type = "commodities",
  is.mirrorData = TRUE,
  rm.temporaryFiles = FALSE,
  build.Comtrade = TRUE,
)
AT_mirr
#> # A tibble: 363 x 8
#>    classification period trade_flow reporter         partner commodity_code commodity    ~ trade_value_usd
#>    <chr>           <int> <chr>      <chr>            <chr>   <chr>          <chr>        ~           <dbl>
#>  1 H3               2018 Export     Austria mirrored World   01             Live animals;~       146122111
#>  2 H3               2018 Export     Austria mirrored World   02             Meat and edib~      1279494900
#>  3 H3               2018 Export     Austria mirrored World   03             Fish and crus~        10067362
#>  4 H3               2018 Export     Austria mirrored World   04             Dairy produce~      1522685531
#>  5 H3               2018 Export     Austria mirrored World   05             Products of a~        79271602
#>  6 H3               2018 Export     Austria mirrored World   06             Live trees an~        26938801
#>  7 H3               2018 Export     Austria mirrored World   07             Edible vegeta~       142130800
#>  8 H3               2018 Export     Austria mirrored World   08             Edible fruit ~       209962703
#>  9 H3               2018 Export     Austria mirrored World   09             Coffee, tea, ~       116804431
#> 10 H3               2018 Export     Austria mirrored World   10             Cereals      ~       544971227
#> # ... with 353 more rows
…
In case you want to convert the trade data you downloaded before using download_Comtrade() from H3 to the Revision 3 standard of the International Standard Industrial Classification (ISIC) nomenclature, i.e. I3, you can use the abbreviations and information from the Concordance Table to do so by running the command below. You can obtain more information on the concordance between H3 and I3 by running ?H3_I3 in R. Furthermore, please note that for any non-matched category, a warning message is returned.

I3 <- AT_World %>%
  convert_Comtrade(
    classification.from = "HS2007",
    commodity.code = "commodity_code",
    classification.to = "I3"
  )
#> Warning in convert_Comtrade(., classification.from = "HS2007", commodity.code
#> = "commodity_code", : The following commodity codes of column 'commodity_code'
#> could not be matched: 999999.
I3 %>%
  select(classification, commodity_code, `ISIC Revision 3 Product Code`)
#> # A tibble: 9,432 x 3
#>    classification commodity_code `ISIC Revision 3 Product Code`
#>    <chr>          <chr>          <chr>                         
#>  1 H3             010110         0121                          
#>  2 H3             010190         0121                          
#>  3 H3             010190         0121                          
#>  4 H3             010210         0121                          
#>  5 H3             010210         0121                          
#>  6 H3             010290         0121                          
#>  7 H3             010290         0121                          
#>  8 H3             010310         0122                          
#>  9 H3             010310         0122                          
#> 10 H3             010391         0122                          
#> # ... with 9,422 more rows
…
    commodity.code = "commodity_code",
    classification.to = "HS2007"
  ) %>%
  # Step 3: Convert from HS2012/H4 to HS2007/H3
  convert_Comtrade(
    classification.from = "H3",
    commodity.code = "HS 2007 Product Code",
    classification.to = "I3"
  ) %>%
  select(
    `Original Comtrade Query` = classification,
    `HS 2017 Product Code` = commodity_code,
    `HS 2007 Product Code`, `ISIC Revision 3 Product Code`
  )
#> # A tibble: 4,876 x 4
#>    `Original Comtrade Query` `HS 2017 Product~ `HS 2007 Produc~ `ISIC Revision ~
#>    <chr>                     <chr>             <chr>            <chr>           
#>  1 H5                        010121            010110           0121            
#>  2 H5                        010129            010190           0121            
#>  3 H5                        010221            010210           0121            
#>  4 H5                        010229            010290           0121            
#>  5 H5                        010310            010310           0122            
#>  6 H5                        010391            010391           0122            
#>  7 H5                        010392            010392           0122            
#>  8 H5                        010410            010410           0121            
#>  9 H5                        010420            010420           0121            
#> 10 H5                        010511            010511           0122            
#> # ... with 4,866 more rows
…
